G75*
%MOIN*%
%OFA0B0*%
%FSLAX25Y25*%
%IPPOS*%
%LPD*%
%AMOC8*
5,1,8,0,0,1.08239X$1,22.5*
%
%ADD10C,0.06600*%
%ADD11C,0.05600*%
%ADD12C,0.06000*%
%ADD13C,0.01000*%
%ADD14C,0.04000*%
%ADD15C,0.04356*%
%ADD16C,0.03200*%
D10*
X0202126Y0021000D03*
X0217874Y0021000D03*
D11*
X0292200Y0096000D02*
X0297800Y0096000D01*
X0297800Y0106000D02*
X0292200Y0106000D01*
X0292200Y0116000D02*
X0297800Y0116000D01*
X0297800Y0126000D02*
X0292200Y0126000D01*
X0292200Y0136000D02*
X0297800Y0136000D01*
X0297800Y0146000D02*
X0292200Y0146000D01*
X0292200Y0156000D02*
X0297800Y0156000D01*
X0297800Y0166000D02*
X0292200Y0166000D01*
X0270000Y0183200D02*
X0270000Y0188800D01*
X0260000Y0188800D02*
X0260000Y0183200D01*
X0250000Y0183200D02*
X0250000Y0188800D01*
X0240000Y0188800D02*
X0240000Y0183200D01*
X0230000Y0183200D02*
X0230000Y0188800D01*
X0220000Y0188800D02*
X0220000Y0183200D01*
X0210000Y0183200D02*
X0210000Y0188800D01*
X0200000Y0188800D02*
X0200000Y0183200D01*
X0190000Y0183200D02*
X0190000Y0188800D01*
X0180000Y0188800D02*
X0180000Y0183200D01*
X0170000Y0183200D02*
X0170000Y0188800D01*
X0160000Y0188800D02*
X0160000Y0183200D01*
X0150000Y0183200D02*
X0150000Y0188800D01*
X0140000Y0188800D02*
X0140000Y0183200D01*
X0130000Y0183200D02*
X0130000Y0188800D01*
X0120000Y0188800D02*
X0120000Y0183200D01*
D12*
X0125000Y0084000D02*
X0125000Y0078000D01*
X0135000Y0078000D02*
X0135000Y0084000D01*
X0145000Y0084000D02*
X0145000Y0078000D01*
X0275000Y0079000D02*
X0275000Y0073000D01*
X0285000Y0073000D02*
X0285000Y0079000D01*
X0295000Y0079000D02*
X0295000Y0073000D01*
D13*
X0285000Y0076000D02*
X0284600Y0075700D01*
X0277400Y0068500D01*
X0272900Y0068500D01*
X0252200Y0089200D01*
X0252200Y0160300D01*
X0240500Y0172000D01*
X0240500Y0185500D01*
X0240000Y0186000D01*
X0231500Y0178300D02*
X0227900Y0178300D01*
X0220700Y0185500D01*
X0220000Y0186000D01*
X0210800Y0185500D02*
X0210000Y0186000D01*
X0210800Y0185500D02*
X0219800Y0176500D01*
X0230600Y0176500D01*
X0246800Y0160300D01*
X0246800Y0148600D01*
X0244100Y0145900D01*
X0248600Y0145000D02*
X0248600Y0161200D01*
X0231500Y0178300D01*
X0227000Y0174700D02*
X0243200Y0158500D01*
X0234200Y0162100D02*
X0213500Y0162100D01*
X0190100Y0185500D01*
X0190000Y0186000D01*
X0200000Y0186000D02*
X0200000Y0185500D01*
X0210800Y0174700D01*
X0227000Y0174700D01*
X0244100Y0177400D02*
X0249500Y0172000D01*
X0249500Y0170200D01*
X0248600Y0145000D02*
X0230600Y0127000D01*
X0230600Y0125200D01*
X0203600Y0122500D02*
X0200900Y0122500D01*
X0196400Y0118000D01*
X0190000Y0131000D02*
X0190000Y0146000D01*
X0150500Y0144100D02*
X0150500Y0185500D01*
X0150000Y0186000D01*
X0160000Y0186000D02*
X0167600Y0193600D01*
X0171200Y0193600D01*
X0172100Y0192700D01*
X0174800Y0192700D01*
D14*
X0174800Y0192700D03*
X0234200Y0162100D03*
X0243200Y0158500D03*
X0244100Y0145900D03*
X0230600Y0125200D03*
X0203600Y0122500D03*
X0196400Y0118000D03*
X0150500Y0144100D03*
X0244100Y0177400D03*
X0249500Y0170200D03*
D15*
X0190000Y0146000D03*
X0190000Y0131000D03*
X0145000Y0126000D03*
X0185000Y0081000D03*
X0245000Y0081000D03*
X0245000Y0091000D03*
X0270000Y0101000D03*
X0265000Y0051000D03*
D16*
X0245000Y0051000D01*
X0245000Y0081000D01*
X0245000Y0091000D02*
X0155000Y0091000D01*
X0145000Y0096000D01*
X0145000Y0126000D01*
X0145000Y0081000D02*
X0185000Y0081000D01*
X0219578Y0046422D01*
X0276059Y0046422D01*
X0300400Y0070763D01*
X0300400Y0081237D01*
X0297237Y0084400D01*
X0272257Y0084400D01*
X0260000Y0096657D01*
X0260000Y0186000D01*
X0264800Y0181200D01*
X0264800Y0181046D01*
X0285046Y0160800D01*
X0290200Y0160800D01*
X0295000Y0156000D01*
X0303000Y0168154D02*
X0277154Y0194000D01*
X0237846Y0194000D01*
X0234800Y0190954D01*
X0234800Y0190800D01*
X0230000Y0186000D01*
X0250000Y0186000D02*
X0250000Y0175923D01*
X0255100Y0170823D01*
X0255100Y0095900D01*
X0275000Y0076000D01*
X0290400Y0071400D02*
X0290400Y0070763D01*
X0270637Y0051000D01*
X0265000Y0051000D01*
X0290400Y0071400D02*
X0295000Y0076000D01*
X0290046Y0090800D02*
X0279846Y0101000D01*
X0270000Y0101000D01*
X0290046Y0090800D02*
X0299954Y0090800D01*
X0303000Y0093846D01*
X0303000Y0168154D01*
M02*
